St558HW5
…
comb_data3 %>% mutate(
  "famsizeF" = as.factor(famsize),
  "PstatusF" = as.factor(Pstatus),
 "guardianF" = as.factor(guardian),
 "addressF" = as.factor(address),
 .keep = "unused"
) -> comb_data3

#printing for display purposes
math_data3

# A tibble: 395 × 33
   school sex     age  Medu  Fedu Mjob     Fjob     reason  traveltime studytime
   <chr>  <chr> <dbl> <dbl> <dbl> <chr>    <chr>    <chr>        <dbl>     <dbl>
 1 GP     F        18     4     4 at_home  teacher  course           2         2
 2 GP     F        17     1     1 at_home  other    course           1         2
 3 GP     F        15     1     1 at_home  other    other            1         2
 4 GP     F        15     4     2 health   services home             1         3
 5 GP     F        16     3     3 other    other    home             1         2
 6 GP     M        16     4     3 services other    reputa…          1         2
 7 GP     M        16     2     2 other    other    home             1         2
 8 GP     F        17     4     4 other    teacher  home             2         2
 9 GP     M        15     3     2 services other    home             1         2
10 GP     M        15     3     4 other    other    home             1         2
# ℹ 385 more rows
# ℹ 23 more variables: failures <dbl>, schoolsup <chr>, famsup <chr>,
#   paid <chr>, activities <chr>, nursery <chr>, higher <chr>, internet <chr>,
#   romantic <chr>, famrel <dbl>, freetime <dbl>, goout <dbl>, Dalc <dbl>,
#   Walc <dbl>, health <dbl>, absences <dbl>, G1 <dbl>, G2 <dbl>, G3 <dbl>,
#   famsizeF <fct>, PstatusF <fct>, guardianF <fct>, addressF <fct>

por_data3

# A tibble: 649 × 33
   school sex     age  Medu  Fedu Mjob     Fjob     reason  traveltime studytime
   <chr>  <chr> <dbl> <dbl> <dbl> <chr>    <chr>    <chr>        <dbl>     <dbl>
 1 GP     F        18     4     4 at_home  teacher  course           2         2
 2 GP     F        17     1     1 at_home  other    course           1         2
 3 GP     F        15     1     1 at_home  other    other            1         2
 4 GP     F        15     4     2 health   services home             1         3
 5 GP     F        16     3     3 other    other    home             1         2
 6 GP     M        16     4     3 services other    reputa…          1         2
 7 GP     M        16     2     2 other    other    home             1         2
 8 GP     F        17     4     4 other    teacher  home             2         2
 9 GP     M        15     3     2 services other    home             1         2
10 GP     M        15     3     4 other    other    home             1         2
# ℹ 639 more rows
# ℹ 23 more variables: failures <dbl>, schoolsup <chr>, famsup <chr>,
#   paid <chr>, activities <chr>, nursery <chr>, higher <chr>, internet <chr>,
#   romantic <chr>, famrel <dbl>, freetime <dbl>, goout <dbl>, Dalc <dbl>,
#   Walc <dbl>, health <dbl>, absences <dbl>, G1 <dbl>, G2 <dbl>, G3 <dbl>,
#   famsizeF <fct>, PstatusF <fct>, guardianF <fct>, addressF <fct>

comb_data3

# A tibble: 320 × 38
   school sex     age  Medu  Fedu Mjob     Fjob     reason  traveltime studytime
   <chr>  <chr> <dbl> <dbl> <dbl> <chr>    <chr>    <chr>        <dbl>     <dbl>
 1 GP     F        18     4     4 at_home  teacher  course           2         2
 2 GP     F        17     1     1 at_home  other    course           1         2
 3 GP     F        15     4     2 health   services home             1         3
 4 GP     F        16     3     3 other    other    home             1         2
 5 GP     M        16     4     3 services other    reputa…          1         2
 6 GP     M        16     2     2 other    other    home             1         2
 7 GP     F        17     4     4 other    teacher  home             2         2
 8 GP     M        15     3     2 services other    home             1         2
 9 GP     M        15     3     4 other    other    home             1         2
10 GP     F        15     4     4 teacher  health   reputa…          1         2
# ℹ 310 more rows
# ℹ 28 more variables: failures <dbl>, schoolsup <chr>, famsup <chr>,
#   paid.x <chr>, activities <chr>, nursery <chr>, higher <chr>,
#   internet <chr>, romantic <chr>, famrel <dbl>, freetime <dbl>, goout <dbl>,
#   Dalc <dbl>, Walc <dbl>, health <dbl>, absences.x <dbl>, G1.x <dbl>,
#   G2.x <dbl>, G3.x <dbl>, paid.y <chr>, absences.y <dbl>, G1.y <dbl>,
#   G2.y <dbl>, G3.y <dbl>, famsizeF <fct>, PstatusF <fct>, guardianF <fct>, …
…
